^H:\LABS\MP2-LAB1-SET\SRC\ВИНОГРАДОВА ЕКАТЕРИНА\TEST\TEST_MAIN.CPP|H:\LABS\MP2-LAB1-SET\SRC\ВИНОГРАДОВА ЕКАТЕРИНА\TEST\TEST_TBITFIELD.CPP|H:\LABS\MP2-LAB1-SET\SRC\ВИНОГРАДОВА ЕКАТЕРИНА\TEST\TEST_TSET.CPP
H:\LABS\MP2-LAB1-SET\SRC\виноградова екатерина\SLN\VC10\TEST_BITFIELD\DEBUG\VC120.PDB
H:\LABS\MP2-LAB1-SET\SRC\виноградова екатерина\SLN\VC10\TEST_BITFIELD\DEBUG\VC120.IDB
H:\LABS\MP2-LAB1-SET\SRC\Виноградова Екатерина\SLN\VC10\TEST_BITFIELD\DEBUG\TEST_MAIN.OBJ
H:\LABS\MP2-LAB1-SET\SRC\Виноградова Екатерина\SLN\VC10\TEST_BITFIELD\DEBUG\TEST_TBITFIELD.OBJ
H:\LABS\MP2-LAB1-SET\SRC\Виноградова Екатерина\SLN\VC10\TEST_BITFIELD\DEBUG\TEST_TSET.OBJ
^H:\LABS\MP2-LAB1-SET\SRC\ВИНОГРАДОВА ЕКАТЕРИНА\TEST\TEST_MAIN.CPP
H:\LABS\MP2-LAB1-SET\SRC\ВИНОГРАДОВА ЕКАТЕРИНА\SLN\VC10\TEST_BITFIELD\DEBUG\VC120.PDB
^H:\LABS\MP2-LAB1-SET\SRC\ВИНОГРАДОВА ЕКАТЕРИНА\TEST\TEST_TBITFIELD.CPP
H:\LABS\MP2-LAB1-SET\SRC\ВИНОГРАДОВА ЕКАТЕРИНА\SLN\VC10\TEST_BITFIELD\DEBUG\VC120.PDB
H:\LABS\MP2-LAB1-SET\SRC\виноградова екатерина\SLN\VC10\TEST_BITFIELD\DEBUG\VC120.IDB
H:\LABS\MP2-LAB1-SET\SRC\Виноградова Екатерина\SLN\VC10\TEST_BITFIELD\DEBUG\TEST_TBITFIELD.OBJ
^H:\LABS\MP2-LAB1-SET\SRC\ВИНОГРАДОВА ЕКАТЕРИНА\TEST\TEST_TSET.CPP
H:\LABS\MP2-LAB1-SET\SRC\ВИНОГРАДОВА ЕКАТЕРИНА\SLN\VC10\TEST_BITFIELD\DEBUG\VC120.PDB
H:\LABS\MP2-LAB1-SET\SRC\виноградова екатерина\SLN\VC10\TEST_BITFIELD\DEBUG\VC120.IDB
H:\LABS\MP2-LAB1-SET\SRC\Виноградова Екатерина\SLN\VC10\TEST_BITFIELD\DEBUG\TEST_TSET.OBJ
